{
  "config": {
    // line-length 
    "MD013": {
      "code_blocks": false,
      "tables": false
    },
    // no-duplicate-heading
    "MD024": {
      "siblings_only": true
    },
    // blanks-around-fences
    "MD031": {
      "list_items": false 
    }
  }
}
